{
    "10": [
        {
            "16-QAM": {
                "slots": 1,
                "reach": 560
            }
        }
    ],
    "40": [
        {
            "16-QAM": {
                "slots": 1,
                "reach": 560
            }
        }
    ],
    "100": [
        {
            "16-QAM": {
                "slots": 2,
                "reach": 560
            }
        }
    ],
    "400": [
        {
            "16-QAM": {
                "slots": 8,
                "reach": 560
            }
        }
    ],
    "1000": [
        {
            "16-QAM": {
                "slots": 20,
                "reach": 560
            }
        }
    ]
}